{
    "boxesList": [
        {
            "tipoObjeto": "caja",
            "posicionX": -0.5,
            "posicionY": 0.5,
            "posicionZ": -0.5
        },
        {
            "tipoObjeto": "caja",
            "posicionX": -0.5,
            "posicionY": 0.5,
            "posicionZ": 1.5
        },
        {
            "tipoObjeto": "caja",
            "posicionX": -0.5,
            "posicionY": 0.5,
            "posicionZ": 0.5
        },
        {
            "tipoObjeto": "caja",
            "posicionX": 0.5,
            "posicionY": 0.5,
            "posicionZ": 1.5
        },
        {
            "tipoObjeto": "caja",
            "posicionX": 1.5,
            "posicionY": 0.5,
            "posicionZ": 1.5
        },
        {
            "tipoObjeto": "caja",
            "posicionX": 1.5,
            "posicionY": 0.5,
            "posicionZ": 0.5
        },
        {
            "tipoObjeto": "caja",
            "posicionX": 1.5,
            "posicionY": 0.5,
            "posicionZ": -0.5
        },
        {
            "tipoObjeto": "caja",
            "posicionX": 0.5,
            "posicionY": 0.5,
            "posicionZ": -0.5
        }
    ],
    "wallsList": [
        {
            "tipoObjeto": "pared",
            "posicionX": -1.5,
            "posicionY": 0.5,
            "posicionZ": 3.5
        },
        {
            "tipoObjeto": "pared",
            "posicionX": -0.5,
            "posicionY": 0.5,
            "posicionZ": 3.5
        },
        {
            "tipoObjeto": "pared",
            "posicionX": 0.5,
            "posicionY": 0.5,
            "posicionZ": 3.5
        },
        {
            "tipoObjeto": "pared",
            "posicionX": 1.5,
            "posicionY": 0.5,
            "posicionZ": 3.5
        },
        {
            "tipoObjeto": "pared",
            "posicionX": 2.5,
            "posicionY": 0.5,
            "posicionZ": 3.5
        },
        {
            "tipoObjeto": "pared",
            "posicionX": 2.5,
            "posicionY": 0.5,
            "posicionZ": 2.5
        },
        {
            "tipoObjeto": "pared",
            "posicionX": 3.5,
            "posicionY": 0.5,
            "posicionZ": 2.5
        },
        {
            "tipoObjeto": "pared",
            "posicionX": -1.5,
            "posicionY": 0.5,
            "posicionZ": 2.5
        },
        {
            "tipoObjeto": "pared",
            "posicionX": -2.5,
            "posicionY": 0.5,
            "posicionZ": 2.5
        },
        {
            "tipoObjeto": "pared",
            "posicionX": -2.5,
            "posicionY": 0.5,
            "posicionZ": 1.5
        },
        {
            "tipoObjeto": "pared",
            "posicionX": -2.5,
            "posicionY": 0.5,
            "posicionZ": 0.5
        },
        {
            "tipoObjeto": "pared",
            "posicionX": -2.5,
            "posicionY": 0.5,
            "posicionZ": -0.5
        },
        {
            "tipoObjeto": "pared",
            "posicionX": -2.5,
            "posicionY": 0.5,
            "posicionZ": -1.5
        },
        {
            "tipoObjeto": "pared",
            "posicionX": -1.5,
            "posicionY": 0.5,
            "posicionZ": -1.5
        },
        {
            "tipoObjeto": "pared",
            "posicionX": -1.5,
            "posicionY": 0.5,
            "posicionZ": -2.5
        },
        {
            "tipoObjeto": "pared",
            "posicionX": -0.5,
            "posicionY": 0.5,
            "posicionZ": -2.5
        },
        {
            "tipoObjeto": "pared",
            "posicionX": 0.5,
            "posicionY": 0.5,
            "posicionZ": -2.5
        },
        {
            "tipoObjeto": "pared",
            "posicionX": 1.5,
            "posicionY": 0.5,
            "posicionZ": -2.5
        },
        {
            "tipoObjeto": "pared",
            "posicionX": 2.5,
            "posicionY": 0.5,
            "posicionZ": -2.5
        },
        {
            "tipoObjeto": "pared",
            "posicionX": 2.5,
            "posicionY": 0.5,
            "posicionZ": -1.5
        },
        {
            "tipoObjeto": "pared",
            "posicionX": 3.5,
            "posicionY": 0.5,
            "posicionZ": -1.5
        },
        {
            "tipoObjeto": "pared",
            "posicionX": 3.5,
            "posicionY": 0.5,
            "posicionZ": -0.5
        },
        {
            "tipoObjeto": "pared",
            "posicionX": 3.5,
            "posicionY": 0.5,
            "posicionZ": 0.5
        },
        {
            "tipoObjeto": "pared",
            "posicionX": 3.5,
            "posicionY": 0.5,
            "posicionZ": 1.5
        }
    ],
    "targetsList": [
        {
            "tipoObjeto": "target",
            "posicionX": -1.5,
            "posicionY": 0.5,
            "posicionZ": 1.5
        },
        {
            "tipoObjeto": "target",
            "posicionX": -0.5,
            "posicionY": 0.5,
            "posicionZ": 2.5
        },
        {
            "tipoObjeto": "target",
            "posicionX": 1.5,
            "posicionY": 0.5,
            "posicionZ": 2.5
        },
        {
            "tipoObjeto": "target",
            "posicionX": 2.5,
            "posicionY": 0.5,
            "posicionZ": 1.5
        },
        {
            "tipoObjeto": "target",
            "posicionX": 2.5,
            "posicionY": 0.5,
            "posicionZ": -0.5
        },
        {
            "tipoObjeto": "target",
            "posicionX": 1.5,
            "posicionY": 0.5,
            "posicionZ": -1.5
        },
        {
            "tipoObjeto": "target",
            "posicionX": -0.5,
            "posicionY": 0.5,
            "posicionZ": -1.5
        },
        {
            "tipoObjeto": "target",
            "posicionX": -1.5,
            "posicionY": 0.5,
            "posicionZ": -0.5
        }
    ],
    "spawnPoint": {
        "referenciaSpawnPoint": "spawnPoint",
        "spawnPointX": 0.5,
        "spawnPointY": 0.5,
        "spawnPointZ": 0.5
    }
}