%YAML 1.1
%TAG !u! tag:unity3d.com,2011:
--- !u!181963792 &2655988077585873504
Preset:
  m_ObjectHideFlags: 0
  m_CorrespondingSourceObject: {fileID: 0}
  m_PrefabInstance: {fileID: 0}
  m_PrefabAsset: {fileID: 0}
  m_Name: orthographic_camera
  m_TargetType:
    m_NativeTypeID: 20
    m_ManagedTypePPtr: {fileID: 0}
    m_ManagedTypeFallback: 
  m_Properties:
  - target: {fileID: 0}
    propertyPath: m_Enabled
    value: 1
    objectReference: {fileID: 0}
  - target: {fileID: 0}
    propertyPath: m_ClearFlags
    value: 1
    objectReference: {fileID: 0}
  - target: {fileID: 0}
    propertyPath: m_BackGroundColor.r
    value: 0.19215687
    objectReference: {fileID: 0}
  - target: {fileID: 0}
    propertyPath: m_BackGroundColor.g
    value: 0.3019608
    objectReference: {fileID: 0}
  - target: {fileID: 0}
    propertyPath: m_BackGroundColor.b
    value: 0.4745098
    objectReference: {fileID: 0}
  - target: {fileID: 0}
    propertyPath: m_BackGroundColor.a
    value: 0
    objectReference: {fileID: 0}
  - target: {fileID: 0}
    propertyPath: m_projectionMatrixMode
    value: 1
    objectReference: {fileID: 0}
  - target: {fileID: 0}
    propertyPath: m_SensorSize.x
    value: 36
    objectReference: {fileID: 0}
  - target: {fileID: 0}
    propertyPath: m_SensorSize.y
    value: 24
    objectReference: {fileID: 0}
  - target: {fileID: 0}
    propertyPath: m_LensShift.x
    value: 0
    objectReference: {fileID: 0}
  - target: {fileID: 0}
    propertyPath: m_LensShift.y
    value: 0
    objectReference: {fileID: 0}
  - target: {fileID: 0}
    propertyPath: m_GateFitMode
    value: 2
    objectReference: {fileID: 0}
  - target: {fileID: 0}
    propertyPath: m_FocalLength
    value: 50
    objectReference: {fileID: 0}
  - target: {fileID: 0}
    propertyPath: m_NormalizedViewPortRect.x
    value: 0
    objectReference: {fileID: 0}
  - target: {fileID: 0}
    propertyPath: m_NormalizedViewPortRect.y
    value: 0
    objectReference: {fileID: 0}
  - target: {fileID: 0}
    propertyPath: m_NormalizedViewPortRect.width
    value: 1
    objectReference: {fileID: 0}
  - target: {fileID: 0}
    propertyPath: m_NormalizedViewPortRect.height
    value: 1
    objectReference: {fileID: 0}
  - target: {fileID: 0}
    propertyPath: near clip plane
    value: 0.3
    objectReference: {fileID: 0}
  - target: {fileID: 0}
    propertyPath: far clip plane
    value: 1000
    objectReference: {fileID: 0}
  - target: {fileID: 0}
    propertyPath: field of view
    value: 70
    objectReference: {fileID: 0}
  - target: {fileID: 0}
    propertyPath: orthographic
    value: 1
    objectReference: {fileID: 0}
  - target: {fileID: 0}
    propertyPath: orthographic size
    value: 7
    objectReference: {fileID: 0}
  - target: {fileID: 0}
    propertyPath: m_Depth
    value: -1
    objectReference: {fileID: 0}
  - target: {fileID: 0}
    propertyPath: m_CullingMask.m_Bits
    value: 4294967295
    objectReference: {fileID: 0}
  - target: {fileID: 0}
    propertyPath: m_RenderingPath
    value: -1
    objectReference: {fileID: 0}
  - target: {fileID: 0}
    propertyPath: m_TargetTexture
    value: 
    objectReference: {fileID: 0}
  - target: {fileID: 0}
    propertyPath: m_TargetDisplay
    value: 0
    objectReference: {fileID: 0}
  - target: {fileID: 0}
    propertyPath: m_TargetEye
    value: 3
    objectReference: {fileID: 0}
  - target: {fileID: 0}
    propertyPath: m_HDR
    value: 1
    objectReference: {fileID: 0}
  - target: {fileID: 0}
    propertyPath: m_AllowMSAA
    value: 1
    objectReference: {fileID: 0}
  - target: {fileID: 0}
    propertyPath: m_AllowDynamicResolution
    value: 0
    objectReference: {fileID: 0}
  - target: {fileID: 0}
    propertyPath: m_ForceIntoRT
    value: 0
    objectReference: {fileID: 0}
  - target: {fileID: 0}
    propertyPath: m_OcclusionCulling
    value: 1
    objectReference: {fileID: 0}
  - target: {fileID: 0}
    propertyPath: m_StereoConvergence
    value: 10
    objectReference: {fileID: 0}
  - target: {fileID: 0}
    propertyPath: m_StereoSeparation
    value: 0.022
    objectReference: {fileID: 0}
